digraph Alf {
size = "60,90";
node [ shape = record ];
Eat [label = "1.1| цепочка\(|{'Еду можно есть'}|\)"]
Hungry[label = "1.2|\цепочка\(|{'Когда испытываешь голод,'|'ищи пищу'|'и ешь её'}|\)"];
Catch[label = "1.3|\цепочка\(|{'Следуй за едой,'|'которая движется'}|\)"];

EatBig[label = "2.1|\цепочка\(|{'Поедать большую добычу'}|\)"];

EatMam[label = "2.2|\цепочка\(|{'Поедать неживого мамонта'}|\)"];

GoNearOrgEat[    label = "3.1|\цепочка\(|{'Пищу, '|'оставленную другим '|'наевшимся организмом, '|'можно доесть'}|\)"];
GoNearOrgLostEat[label = "3.2|\цепочка\(|{'Пищу, '|'потерянную организмом, '|'можно съесть'}|\)"];
GoNearMotherOrgEat[label = "3.3|\цепочка\(|{'Пища, '|'которую несет соплеменник-мама, '|'мне-ребенку '|'можно будет съесть'}|\)"];

CatchOrg[label = "4|\цепочка\(|{'Следуй за организмом, '|'несущим еду'}|\)"];
CatchOrgTrac[label = "5|\цепочка\(|{'Иди в обратном направлении '|'по следу соплеменника '|'несущего кусок еды'}|\)"];

MoveEatToChild[label = "6|\цепочка\(|{'Отнести еду '|'потомству'}|\)"];
MoveMamToChild[label = "7|\цепочка\(|{'Перености неживого мамонта '|'в пещеру-дом потомству'}|\)"];

GoNearOrgMam[    label = "8|\цепочка\(|{'Иди за соплеменником, '|'который тащит часть мамонта'}|\)"];

CatchOrgMamTrac[ label = "9|\цепочка\(|{'Иди по следу '|'отставляемому волочащейся частью мамонта, '|'переносимой соплеменником'}|\)"];

CatchOrgMam[ label = "10|\цепочка\(|{'Идем вместе с соплеменником '|'за мясом мамонта'}|\)"];

MoveMamToChildTalk[ label = "11|\цепочка\(|{'Если видел мамонта '|'перенеси в пещеру и '|'сообщи соплеменнику, '|'что видел мамонта'}|\)"];

GoMam [          label = "20|\цепочка\(|{'Идти за соплеменником'|'который сказал,'|'что видел мамонта'}|\)"];

Eat -> Hungry;
Hungry -> Catch;

Eat -> EatBig;

EatBig -> EatMam;
EatMam -> GoMam ;

Catch -> CatchOrg;

CatchOrg -> GoNearOrgEat;

CatchOrg -> GoNearOrgLostEat;
CatchOrg -> GoNearMotherOrgEat;

GoNearOrgEat -> GoNearOrgMam;
GoNearOrgLostEat -> GoNearOrgMam;
GoNearMotherOrgEat -> GoNearOrgMam;

MoveEatToChild -> MoveMamToChild;
MoveMamToChild -> MoveMamToChildTalk;

Hungry -> CatchOrgTrac;

CatchOrgTrac -> CatchOrgMamTrac;

CatchOrgMamTrac -> CatchOrgMam;

CatchOrgMam -> GoMam ;
GoNearOrgMam -> GoMam ;
MoveMamToChild -> GoMam ;
}