<?xml version="1.0" encoding="UTF-8" standalone="no"?>
<!-- Created with Inkscape (http://www.inkscape.org/) -->

<svg
   xmlns:dc="http://purl.org/dc/elements/1.1/"
   xmlns:cc="http://creativecommons.org/ns#"
   xmlns:rdf="http://www.w3.org/1999/02/22-rdf-syntax-ns#"
   xmlns:svg="http://www.w3.org/2000/svg"
   xmlns="http://www.w3.org/2000/svg"
   xmlns:xlink="http://www.w3.org/1999/xlink"
   xmlns:sodipodi="http://sodipodi.sourceforge.net/DTD/sodipodi-0.dtd"
   xmlns:inkscape="http://www.inkscape.org/namespaces/inkscape"
   version="1.1"
   width="4000"
   height="2000"
   id="svg2"
   inkscape:version="0.48.4 r9939"
   sodipodi:docname="Chemical_reactions.svg">
  <sodipodi:namedview
     pagecolor="#ffffff"
     bordercolor="#666666"
     borderopacity="1"
     objecttolerance="10"
     gridtolerance="10"
     guidetolerance="10"
     inkscape:pageopacity="0"
     inkscape:pageshadow="2"
     inkscape:window-width="1507"
     inkscape:window-height="877"
     id="namedview4845"
     showgrid="false"
     inkscape:zoom="0.187"
     inkscape:cx="2332.7125"
     inkscape:cy="974.10738"
     inkscape:window-x="-8"
     inkscape:window-y="-8"
     inkscape:window-maximized="1"
     inkscape:current-layer="svg2" />
  <defs
     id="defs4">
    <linearGradient
       id="linearGradient3969">
      <stop
         id="stop3971"
         style="stop-color:#000000;stop-opacity:1"
         offset="0" />
      <stop
         id="stop3973"
         style="stop-color:#000000;stop-opacity:0"
         offset="1" />
    </linearGradient>
    <radialGradient
       cx="-790"
       cy="326.64789"
       r="50"
       fx="-790"
       fy="326.64789"
       id="radialGradient3975-9"
       xlink:href="#linearGradient3969-8"
       gradientUnits="userSpaceOnUse"
       gradientTransform="matrix(1,0,0,2.1142857,0,-363.97908)" />
    <linearGradient
       id="linearGradient3969-8">
      <stop
         id="stop3971-2"
         style="stop-color:#ffffff;stop-opacity:1"
         offset="0" />
      <stop
         id="stop3973-4"
         style="stop-color:#ffffff;stop-opacity:0"
         offset="1" />
    </linearGradient>
    <radialGradient
       cx="-790"
       cy="326.64789"
       r="50"
       fx="-790"
       fy="326.64789"
       id="radialGradient3975-2"
       xlink:href="#linearGradient3969-9"
       gradientUnits="userSpaceOnUse"
       gradientTransform="matrix(1,0,0,2.1142857,0,-363.97908)" />
    <linearGradient
       id="linearGradient3969-9">
      <stop
         id="stop3971-9"
         style="stop-color:#ffffff;stop-opacity:1"
         offset="0" />
      <stop
         id="stop3973-8"
         style="stop-color:#ffffff;stop-opacity:0"
         offset="1" />
    </linearGradient>
    <radialGradient
       cx="-790"
       cy="326.64789"
       r="50"
       fx="-790"
       fy="326.64789"
       id="radialGradient3975-6"
       xlink:href="#linearGradient3969-98"
       gradientUnits="userSpaceOnUse"
       gradientTransform="matrix(1,0,0,2.1142857,0,-363.97908)" />
    <linearGradient
       id="linearGradient3969-98">
      <stop
         id="stop3971-6"
         style="stop-color:#ffffff;stop-opacity:1"
         offset="0" />
      <stop
         id="stop3973-6"
         style="stop-color:#ffffff;stop-opacity:0"
         offset="1" />
    </linearGradient>
    <radialGradient
       cx="-790"
       cy="326.64789"
       r="50"
       fx="-790"
       fy="326.64789"
       id="radialGradient3975-8"
       xlink:href="#linearGradient3969-2"
       gradientUnits="userSpaceOnUse"
       gradientTransform="matrix(1,0,0,2.1142857,0,-363.97908)" />
    <linearGradient
       id="linearGradient3969-2">
      <stop
         id="stop3971-62"
         style="stop-color:#ffffff;stop-opacity:1"
         offset="0" />
      <stop
         id="stop3973-7"
         style="stop-color:#ffffff;stop-opacity:0"
         offset="1" />
    </linearGradient>
    <radialGradient
       cx="-790"
       cy="326.64789"
       r="50"
       fx="-790"
       fy="326.64789"
       id="radialGradient3975-82"
       xlink:href="#linearGradient3969-7"
       gradientUnits="userSpaceOnUse"
       gradientTransform="matrix(1,0,0,2.1142857,0,-363.97908)" />
    <linearGradient
       id="linearGradient3969-7">
      <stop
         id="stop3971-8"
         style="stop-color:#000000;stop-opacity:1"
         offset="0" />
      <stop
         id="stop3973-0"
         style="stop-color:#000000;stop-opacity:0"
         offset="1" />
    </linearGradient>
    <radialGradient
       cx="-790"
       cy="326.64789"
       r="50"
       fx="-790"
       fy="326.64789"
       id="radialGradient3975-0"
       xlink:href="#linearGradient3969-89"
       gradientUnits="userSpaceOnUse"
       gradientTransform="matrix(1,0,0,2.1142857,0,-363.97908)" />
    <linearGradient
       id="linearGradient3969-89">
      <stop
         id="stop3971-28"
         style="stop-color:#000000;stop-opacity:1"
         offset="0" />
      <stop
         id="stop3973-2"
         style="stop-color:#000000;stop-opacity:0"
         offset="1" />
    </linearGradient>
    <radialGradient
       cx="-790"
       cy="326.64789"
       r="50"
       fx="-790"
       fy="326.64789"
       id="radialGradient3975-27"
       xlink:href="#linearGradient3969-6"
       gradientUnits="userSpaceOnUse"
       gradientTransform="matrix(1,0,0,2.1142857,0,-363.97908)" />
    <linearGradient
       id="linearGradient3969-6">
      <stop
         id="stop3971-7"
         style="stop-color:#000000;stop-opacity:1"
         offset="0" />
      <stop
         id="stop3973-87"
         style="stop-color:#000000;stop-opacity:0"
         offset="1" />
    </linearGradient>
    <linearGradient
       id="linearGradient3969-98-0">
      <stop
         id="stop3971-6-9"
         style="stop-color:#ffffff;stop-opacity:1"
         offset="0" />
      <stop
         id="stop3973-6-5"
         style="stop-color:#ffffff;stop-opacity:0"
         offset="1" />
    </linearGradient>
    <linearGradient
       id="linearGradient3969-9-9">
      <stop
         id="stop3971-9-0"
         style="stop-color:#ffffff;stop-opacity:1"
         offset="0" />
      <stop
         id="stop3973-8-0"
         style="stop-color:#ffffff;stop-opacity:0"
         offset="1" />
    </linearGradient>
    <linearGradient
       id="linearGradient3969-8-7">
      <stop
         id="stop3971-2-2"
         style="stop-color:#ffffff;stop-opacity:1"
         offset="0" />
      <stop
         id="stop3973-4-5"
         style="stop-color:#ffffff;stop-opacity:0"
         offset="1" />
    </linearGradient>
    <linearGradient
       id="linearGradient3969-2-2">
      <stop
         id="stop3971-62-1"
         style="stop-color:#ffffff;stop-opacity:1"
         offset="0" />
      <stop
         id="stop3973-7-4"
         style="stop-color:#ffffff;stop-opacity:0"
         offset="1" />
    </linearGradient>
    <linearGradient
       id="linearGradient3969-98-9">
      <stop
         id="stop3971-6-0"
         style="stop-color:#ffffff;stop-opacity:1"
         offset="0" />
      <stop
         id="stop3973-6-3"
         style="stop-color:#ffffff;stop-opacity:0"
         offset="1" />
    </linearGradient>
    <linearGradient
       id="linearGradient3969-9-3">
      <stop
         id="stop3971-9-5"
         style="stop-color:#ffffff;stop-opacity:1"
         offset="0" />
      <stop
         id="stop3973-8-07"
         style="stop-color:#ffffff;stop-opacity:0"
         offset="1" />
    </linearGradient>
    <linearGradient
       id="linearGradient3969-8-78">
      <stop
         id="stop3971-2-3"
         style="stop-color:#ffffff;stop-opacity:1"
         offset="0" />
      <stop
         id="stop3973-4-6"
         style="stop-color:#ffffff;stop-opacity:0"
         offset="1" />
    </linearGradient>
    <linearGradient
       id="linearGradient3969-2-4">
      <stop
         id="stop3971-62-19"
         style="stop-color:#ffffff;stop-opacity:1"
         offset="0" />
      <stop
         id="stop3973-7-5"
         style="stop-color:#ffffff;stop-opacity:0"
         offset="1" />
    </linearGradient>
    <linearGradient
       id="linearGradient3969-98-9-1">
      <stop
         id="stop3971-6-0-1"
         style="stop-color:#ffffff;stop-opacity:1"
         offset="0" />
      <stop
         id="stop3973-6-3-9"
         style="stop-color:#ffffff;stop-opacity:0"
         offset="1" />
    </linearGradient>
    <linearGradient
       id="linearGradient3969-9-3-5">
      <stop
         id="stop3971-9-5-5"
         style="stop-color:#ffffff;stop-opacity:1"
         offset="0" />
      <stop
         id="stop3973-8-07-5"
         style="stop-color:#ffffff;stop-opacity:0"
         offset="1" />
    </linearGradient>
    <linearGradient
       id="linearGradient3969-8-7-5">
      <stop
         id="stop3971-2-2-3"
         style="stop-color:#ffffff;stop-opacity:1"
         offset="0" />
      <stop
         id="stop3973-4-5-9"
         style="stop-color:#ffffff;stop-opacity:0"
         offset="1" />
    </linearGradient>
    <linearGradient
       id="linearGradient3969-8-7-5-0">
      <stop
         id="stop3971-2-2-3-2"
         style="stop-color:#ffffff;stop-opacity:1"
         offset="0" />
      <stop
         id="stop3973-4-5-9-4"
         style="stop-color:#ffffff;stop-opacity:0"
         offset="1" />
    </linearGradient>
    <linearGradient
       id="linearGradient3969-98-9-1-0">
      <stop
         id="stop3971-6-0-1-2"
         style="stop-color:#ffffff;stop-opacity:1"
         offset="0" />
      <stop
         id="stop3973-6-3-9-2"
         style="stop-color:#ffffff;stop-opacity:0"
         offset="1" />
    </linearGradient>
    <linearGradient
       id="linearGradient3969-9-3-5-5">
      <stop
         id="stop3971-9-5-5-4"
         style="stop-color:#ffffff;stop-opacity:1"
         offset="0" />
      <stop
         id="stop3973-8-07-5-4"
         style="stop-color:#ffffff;stop-opacity:0"
         offset="1" />
    </linearGradient>
    <linearGradient
       id="linearGradient3969-98-9-2">
      <stop
         id="stop3971-6-0-5"
         style="stop-color:#ffffff;stop-opacity:1"
         offset="0" />
      <stop
         id="stop3973-6-3-0"
         style="stop-color:#ffffff;stop-opacity:0"
         offset="1" />
    </linearGradient>
    <linearGradient
       id="linearGradient3969-9-3-2">
      <stop
         id="stop3971-9-5-1"
         style="stop-color:#ffffff;stop-opacity:1"
         offset="0" />
      <stop
         id="stop3973-8-07-2"
         style="stop-color:#ffffff;stop-opacity:0"
         offset="1" />
    </linearGradient>
    <linearGradient
       id="linearGradient3969-8-78-7">
      <stop
         id="stop3971-2-3-9"
         style="stop-color:#ffffff;stop-opacity:1"
         offset="0" />
      <stop
         id="stop3973-4-6-5"
         style="stop-color:#ffffff;stop-opacity:0"
         offset="1" />
    </linearGradient>
    <linearGradient
       id="linearGradient3969-98-9-1-0-7">
      <stop
         id="stop3971-6-0-1-2-1"
         style="stop-color:#ffffff;stop-opacity:1"
         offset="0" />
      <stop
         id="stop3973-6-3-9-2-3"
         style="stop-color:#ffffff;stop-opacity:0"
         offset="1" />
    </linearGradient>
    <linearGradient
       id="linearGradient3969-9-3-5-5-1">
      <stop
         id="stop3971-9-5-5-4-6"
         style="stop-color:#ffffff;stop-opacity:1"
         offset="0" />
      <stop
         id="stop3973-8-07-5-4-3"
         style="stop-color:#ffffff;stop-opacity:0"
         offset="1" />
    </linearGradient>
    <linearGradient
       id="linearGradient3969-98-9-1-0-7-5">
      <stop
         id="stop3971-6-0-1-2-1-4"
         style="stop-color:#ffffff;stop-opacity:1"
         offset="0" />
      <stop
         id="stop3973-6-3-9-2-3-6"
         style="stop-color:#ffffff;stop-opacity:0"
         offset="1" />
    </linearGradient>
    <linearGradient
       id="linearGradient3969-9-3-5-5-1-9">
      <stop
         id="stop3971-9-5-5-4-6-3"
         style="stop-color:#ffffff;stop-opacity:1"
         offset="0" />
      <stop
         id="stop3973-8-07-5-4-3-4"
         style="stop-color:#ffffff;stop-opacity:0"
         offset="1" />
    </linearGradient>
    <radialGradient
       cx="-790"
       cy="326.64789"
       r="50"
       fx="-790"
       fy="326.64789"
       id="radialGradient5254"
       xlink:href="#linearGradient3969-9"
       gradientUnits="userSpaceOnUse"
       gradientTransform="matrix(1,0,0,2.1142857,0,-363.97908)" />
    <radialGradient
       cx="-790"
       cy="326.64789"
       r="50"
       fx="-790"
       fy="326.64789"
       id="radialGradient5256"
       xlink:href="#linearGradient3969-98"
       gradientUnits="userSpaceOnUse"
       gradientTransform="matrix(1,0,0,2.1142857,0,-363.97908)" />
    <radialGradient
       cx="-790"
       cy="326.64789"
       r="50"
       fx="-790"
       fy="326.64789"
       id="radialGradient5269"
       xlink:href="#linearGradient3969-8"
       gradientUnits="userSpaceOnUse"
       gradientTransform="matrix(1,0,0,2.1142857,0,-363.97908)" />
    <radialGradient
       cx="-790"
       cy="326.64789"
       r="50"
       fx="-790"
       fy="326.64789"
       id="radialGradient5275"
       xlink:href="#linearGradient3969-2"
       gradientUnits="userSpaceOnUse"
       gradientTransform="matrix(1,0,0,2.1142857,0,-363.97908)" />
    <radialGradient
       cx="-790"
       cy="326.64789"
       r="50"
       fx="-790"
       fy="326.64789"
       id="radialGradient5281"
       xlink:href="#linearGradient3969-9-9"
       gradientUnits="userSpaceOnUse"
       gradientTransform="matrix(1,0,0,2.1142857,0,-363.97908)" />
    <radialGradient
       cx="-790"
       cy="326.64789"
       r="50"
       fx="-790"
       fy="326.64789"
       id="radialGradient5283"
       xlink:href="#linearGradient3969-98-0"
       gradientUnits="userSpaceOnUse"
       gradientTransform="matrix(1,0,0,2.1142857,0,-363.97908)" />
    <radialGradient
       cx="-790"
       cy="326.64789"
       r="50"
       fx="-790"
       fy="326.64789"
       id="radialGradient5296"
       xlink:href="#linearGradient3969-8-7"
       gradientUnits="userSpaceOnUse"
       gradientTransform="matrix(1,0,0,2.1142857,0,-363.97908)" />
    <radialGradient
       cx="-790"
       cy="326.64789"
       r="50"
       fx="-790"
       fy="326.64789"
       id="radialGradient5302"
       xlink:href="#linearGradient3969-2-2"
       gradientUnits="userSpaceOnUse"
       gradientTransform="matrix(1,0,0,2.1142857,0,-363.97908)" />
    <radialGradient
       cx="-790"
       cy="326.64789"
       r="50"
       fx="-790"
       fy="326.64789"
       id="radialGradient5308"
       xlink:href="#linearGradient3969-8-7-5"
       gradientUnits="userSpaceOnUse"
       gradientTransform="matrix(1,0,0,2.1142857,0,-363.97908)" />
    <radialGradient
       cx="-790"
       cy="326.64789"
       r="50"
       fx="-790"
       fy="326.64789"
       id="radialGradient5314"
       xlink:href="#linearGradient3969-9-3-5"
       gradientUnits="userSpaceOnUse"
       gradientTransform="matrix(1,0,0,2.1142857,0,-363.97908)" />
    <radialGradient
       cx="-790"
       cy="326.64789"
       r="50"
       fx="-790"
       fy="326.64789"
       id="radialGradient5316"
       xlink:href="#linearGradient3969-98-9-1"
       gradientUnits="userSpaceOnUse"
       gradientTransform="matrix(1,0,0,2.1142857,0,-363.97908)" />
    <radialGradient
       cx="-790"
       cy="326.64789"
       r="50"
       fx="-790"
       fy="326.64789"
       id="radialGradient5327"
       xlink:href="#linearGradient3969-9-3"
       gradientUnits="userSpaceOnUse"
       gradientTransform="matrix(1,0,0,2.1142857,0,-363.97908)" />
    <radialGradient
       cx="-790"
       cy="326.64789"
       r="50"
       fx="-790"
       fy="326.64789"
       id="radialGradient5329"
       xlink:href="#linearGradient3969-98-9"
       gradientUnits="userSpaceOnUse"
       gradientTransform="matrix(1,0,0,2.1142857,0,-363.97908)" />
    <radialGradient
       cx="-790"
       cy="326.64789"
       r="50"
       fx="-790"
       fy="326.64789"
       id="radialGradient5342"
       xlink:href="#linearGradient3969-8-78"
       gradientUnits="userSpaceOnUse"
       gradientTransform="matrix(1,0,0,2.1142857,0,-363.97908)" />
    <radialGradient
       cx="-790"
       cy="326.64789"
       r="50"
       fx="-790"
       fy="326.64789"
       id="radialGradient5348"
       xlink:href="#linearGradient3969-9-3-5-5-1-9"
       gradientUnits="userSpaceOnUse"
       gradientTransform="matrix(1,0,0,2.1142857,0,-363.97908)" />
    <radialGradient
       cx="-790"
       cy="326.64789"
       r="50"
       fx="-790"
       fy="326.64789"
       id="radialGradient5350"
       xlink:href="#linearGradient3969-98-9-1-0-7-5"
       gradientUnits="userSpaceOnUse"
       gradientTransform="matrix(1,0,0,2.1142857,0,-363.97908)" />
    <radialGradient
       cx="-790"
       cy="326.64789"
       r="50"
       fx="-790"
       fy="326.64789"
       id="radialGradient5361"
       xlink:href="#linearGradient3969-9-3-5-5-1"
       gradientUnits="userSpaceOnUse"
       gradientTransform="matrix(1,0,0,2.1142857,0,-363.97908)" />
    <radialGradient
       cx="-790"
       cy="326.64789"
       r="50"
       fx="-790"
       fy="326.64789"
       id="radialGradient5363"
       xlink:href="#linearGradient3969-98-9-1-0-7"
       gradientUnits="userSpaceOnUse"
       gradientTransform="matrix(1,0,0,2.1142857,0,-363.97908)" />
    <radialGradient
       cx="-790"
       cy="326.64789"
       r="50"
       fx="-790"
       fy="326.64789"
       id="radialGradient5374"
       xlink:href="#linearGradient3969-9-3-5-5"
       gradientUnits="userSpaceOnUse"
       gradientTransform="matrix(1,0,0,2.1142857,0,-363.97908)" />
    <radialGradient
       cx="-790"
       cy="326.64789"
       r="50"
       fx="-790"
       fy="326.64789"
       id="radialGradient5376"
       xlink:href="#linearGradient3969-98-9-1-0"
       gradientUnits="userSpaceOnUse"
       gradientTransform="matrix(1,0,0,2.1142857,0,-363.97908)" />
    <radialGradient
       cx="-790"
       cy="326.64789"
       r="50"
       fx="-790"
       fy="326.64789"
       id="radialGradient5387"
       xlink:href="#linearGradient3969-9-3-2"
       gradientUnits="userSpaceOnUse"
       gradientTransform="matrix(1,0,0,2.1142857,0,-363.97908)" />
    <radialGradient
       cx="-790"
       cy="326.64789"
       r="50"
       fx="-790"
       fy="326.64789"
       id="radialGradient5389"
       xlink:href="#linearGradient3969-98-9-2"
       gradientUnits="userSpaceOnUse"
       gradientTransform="matrix(1,0,0,2.1142857,0,-363.97908)" />
    <radialGradient
       cx="-790"
       cy="326.64789"
       r="50"
       fx="-790"
       fy="326.64789"
       id="radialGradient5719"
       xlink:href="#linearGradient3969-2"
       gradientUnits="userSpaceOnUse"
       gradientTransform="matrix(1,0,0,2.1142857,0,-363.97908)" />
    <radialGradient
       cx="-790"
       cy="326.64789"
       r="50"
       fx="-790"
       fy="326.64789"
       id="radialGradient5721"
       xlink:href="#linearGradient3969-9-3-5"
       gradientUnits="userSpaceOnUse"
       gradientTransform="matrix(1,0,0,2.1142857,0,-363.97908)" />
    <radialGradient
       cx="-790"
       cy="326.64789"
       r="50"
       fx="-790"
       fy="326.64789"
       id="radialGradient5723"
       xlink:href="#linearGradient3969-98-9-1"
       gradientUnits="userSpaceOnUse"
       gradientTransform="matrix(1,0,0,2.1142857,0,-363.97908)" />
    <radialGradient
       cx="-790"
       cy="326.64789"
       r="50"
       fx="-790"
       fy="326.64789"
       id="radialGradient5725"
       xlink:href="#linearGradient3969-8"
       gradientUnits="userSpaceOnUse"
       gradientTransform="matrix(1,0,0,2.1142857,0,-363.97908)" />
    <radialGradient
       cx="-790"
       cy="326.64789"
       r="50"
       fx="-790"
       fy="326.64789"
       id="radialGradient5727"
       xlink:href="#linearGradient3969-8-78"
       gradientUnits="userSpaceOnUse"
       gradientTransform="matrix(1,0,0,2.1142857,0,-363.97908)" />
    <radialGradient
       cx="-790"
       cy="326.64789"
       r="50"
       fx="-790"
       fy="326.64789"
       id="radialGradient5791"
       xlink:href="#linearGradient3969-8-7"
       gradientUnits="userSpaceOnUse"
       gradientTransform="matrix(1,0,0,2.1142857,0,-363.97908)" />
    <radialGradient
       cx="-790"
       cy="326.64789"
       r="50"
       fx="-790"
       fy="326.64789"
       id="radialGradient5793"
       xlink:href="#linearGradient3969-8-7-5"
       gradientUnits="userSpaceOnUse"
       gradientTransform="matrix(1,0,0,2.1142857,0,-363.97908)" />
    <radialGradient
       cx="-790"
       cy="326.64789"
       r="50"
       fx="-790"
       fy="326.64789"
       id="radialGradient5795"
       xlink:href="#linearGradient3969-2-2"
       gradientUnits="userSpaceOnUse"
       gradientTransform="matrix(1,0,0,2.1142857,0,-363.97908)" />
    <radialGradient
       cx="-790"
       cy="326.64789"
       r="50"
       fx="-790"
       fy="326.64789"
       id="radialGradient5797"
       xlink:href="#linearGradient3969-9-3"
       gradientUnits="userSpaceOnUse"
       gradientTransform="matrix(1,0,0,2.1142857,0,-363.97908)" />
    <radialGradient
       cx="-790"
       cy="326.64789"
       r="50"
       fx="-790"
       fy="326.64789"
       id="radialGradient5799"
       xlink:href="#linearGradient3969-98-9"
       gradientUnits="userSpaceOnUse"
       gradientTransform="matrix(1,0,0,2.1142857,0,-363.97908)" />
    <radialGradient
       cx="-790"
       cy="326.64789"
       r="50"
       fx="-790"
       fy="326.64789"
       id="radialGradient5801"
       xlink:href="#linearGradient3969-9"
       gradientUnits="userSpaceOnUse"
       gradientTransform="matrix(1,0,0,2.1142857,0,-363.97908)" />
    <radialGradient
       cx="-790"
       cy="326.64789"
       r="50"
       fx="-790"
       fy="326.64789"
       id="radialGradient5803"
       xlink:href="#linearGradient3969-98"
       gradientUnits="userSpaceOnUse"
       gradientTransform="matrix(1,0,0,2.1142857,0,-363.97908)" />
    <radialGradient
       cx="-790"
       cy="326.64789"
       r="50"
       fx="-790"
       fy="326.64789"
       id="radialGradient5816"
       xlink:href="#linearGradient3969-9-9"
       gradientUnits="userSpaceOnUse"
       gradientTransform="matrix(1,0,0,2.1142857,0,-363.97908)" />
    <radialGradient
       cx="-790"
       cy="326.64789"
       r="50"
       fx="-790"
       fy="326.64789"
       id="radialGradient5818"
       xlink:href="#linearGradient3969-98-0"
       gradientUnits="userSpaceOnUse"
       gradientTransform="matrix(1,0,0,2.1142857,0,-363.97908)" />
    <radialGradient
       cx="-790"
       cy="326.64789"
       r="50"
       fx="-790"
       fy="326.64789"
       id="radialGradient5820"
       xlink:href="#linearGradient3969-9-3-5-5-1-9"
       gradientUnits="userSpaceOnUse"
       gradientTransform="matrix(1,0,0,2.1142857,0,-363.97908)" />
    <radialGradient
       cx="-790"
       cy="326.64789"
       r="50"
       fx="-790"
       fy="326.64789"
       id="radialGradient5822"
       xlink:href="#linearGradient3969-98-9-1-0-7-5"
       gradientUnits="userSpaceOnUse"
       gradientTransform="matrix(1,0,0,2.1142857,0,-363.97908)" />
    <radialGradient
       cx="-790"
       cy="326.64789"
       r="50"
       fx="-790"
       fy="326.64789"
       id="radialGradient5824"
       xlink:href="#linearGradient3969-9-3-2"
       gradientUnits="userSpaceOnUse"
       gradientTransform="matrix(1,0,0,2.1142857,0,-363.97908)" />
    <radialGradient
       cx="-790"
       cy="326.64789"
       r="50"
       fx="-790"
       fy="326.64789"
       id="radialGradient5832"
       xlink:href="#linearGradient3969-9-3-5-5-1"
       gradientUnits="userSpaceOnUse"
       gradientTransform="matrix(1,0,0,2.1142857,0,-363.97908)" />
    <radialGradient
       cx="-790"
       cy="326.64789"
       r="50"
       fx="-790"
       fy="326.64789"
       id="radialGradient5834"
       xlink:href="#linearGradient3969-98-9-1-0-7"
       gradientUnits="userSpaceOnUse"
       gradientTransform="matrix(1,0,0,2.1142857,0,-363.97908)" />
    <radialGradient
       cx="-790"
       cy="326.64789"
       r="50"
       fx="-790"
       fy="326.64789"
       id="radialGradient5836"
       xlink:href="#linearGradient3969-9-3-5-5"
       gradientUnits="userSpaceOnUse"
       gradientTransform="matrix(1,0,0,2.1142857,0,-363.97908)" />
    <radialGradient
       cx="-790"
       cy="326.64789"
       r="50"
       fx="-790"
       fy="326.64789"
       id="radialGradient5838"
       xlink:href="#linearGradient3969-98-9-1-0"
       gradientUnits="userSpaceOnUse"
       gradientTransform="matrix(1,0,0,2.1142857,0,-363.97908)" />
    <radialGradient
       cx="-790"
       cy="326.64789"
       r="50"
       fx="-790"
       fy="326.64789"
       id="radialGradient3575"
       xlink:href="#linearGradient3969-98-9-2"
       gradientUnits="userSpaceOnUse"
       gradientTransform="matrix(1,0,0,2.1142857,0,-363.97908)" />
    <radialGradient
       gradientUnits="userSpaceOnUse"
       gradientTransform="scale(1.0296369,0.97121618)"
       cx="68.089598"
       cy="95.460461"
       fx="68.089603"
       fy="95.460461"
       id="radialGradient832"
       r="91.218673"
       xlink:href="#linearGradient828" />
    <linearGradient
       id="linearGradient828">
      <stop
         id="stop829"
         offset="0.0000000"
         style="stop-color:#ff0000;stop-opacity:1.0000000;" />
      <stop
         id="stop830"
         offset="1.0000000"
         style="stop-color:#8c3300;stop-opacity:1.0000000;" />
    </linearGradient>
    <linearGradient
       gradientUnits="userSpaceOnUse"
       gradientTransform="scale(1.4425953,0.69319512)"
       id="linearGradient831"
       spreadMethod="reflect"
       x1="69.297048"
       x2="25.064139"
       xlink:href="#linearGradient843"
       y1="83.207832"
       y2="44.934326" />
    <linearGradient
       id="linearGradient843">
      <stop
         id="stop844"
         offset="0"
         style="stop-color:#00ff00;" />
      <stop
         id="stop846"
         offset="1"
         style="stop-color:#009000;" />
    </linearGradient>
    <radialGradient
       gradientUnits="userSpaceOnUse"
       gradientTransform="scale(1.6741492,0.59731832)"
       cx="68.57021"
       cy="127.89917"
       fx="63.821736"
       fy="133.66536"
       id="radialGradient853"
       r="17.182573"
       xlink:href="#linearGradient836" />
    <linearGradient
       id="linearGradient836">
      <stop
         id="stop837"
         offset="0.0000000"
         style="stop-color:#c8b800;stop-opacity:1.0000000;" />
      <stop
         id="stop839"
         offset="0.69999999"
         style="stop-color:#ff0000;stop-opacity:0.59259260;" />
      <stop
         id="stop838"
         offset="1.0000000"
         style="stop-color:#ff0000;stop-opacity:0.0000000;" />
    </linearGradient>
    <radialGradient
       inkscape:collect="always"
       xlink:href="#linearGradient828"
       id="radialGradient4961"
       gradientUnits="userSpaceOnUse"
       gradientTransform="scale(1.0296369,0.97121618)"
       cx="68.089598"
       cy="95.460461"
       fx="68.089603"
       fy="95.460461"
       r="91.218673" />
    <linearGradient
       inkscape:collect="always"
       xlink:href="#linearGradient843"
       id="linearGradient4963"
       gradientUnits="userSpaceOnUse"
       gradientTransform="scale(1.4425953,0.69319512)"
       spreadMethod="reflect"
       x1="69.297048"
       y1="83.207832"
       x2="25.064139"
       y2="44.934326" />
    <radialGradient
       inkscape:collect="always"
       xlink:href="#linearGradient836"
       id="radialGradient4965"
       gradientUnits="userSpaceOnUse"
       gradientTransform="scale(1.6741492,0.59731832)"
       cx="68.57021"
       cy="127.89917"
       fx="63.821736"
       fy="133.66536"
       r="17.182573" />
    <radialGradient
       inkscape:collect="always"
       xlink:href="#linearGradient828"
       id="radialGradient4991"
       gradientUnits="userSpaceOnUse"
       gradientTransform="scale(1.0296369,0.97121618)"
       cx="68.089598"
       cy="95.460461"
       fx="68.089603"
       fy="95.460461"
       r="91.218673" />
    <linearGradient
       inkscape:collect="always"
       xlink:href="#linearGradient843"
       id="linearGradient4993"
       gradientUnits="userSpaceOnUse"
       gradientTransform="scale(1.4425953,0.69319512)"
       spreadMethod="reflect"
       x1="69.297048"
       y1="83.207832"
       x2="25.064139"
       y2="44.934326" />
    <radialGradient
       inkscape:collect="always"
       xlink:href="#linearGradient836"
       id="radialGradient4995"
       gradientUnits="userSpaceOnUse"
       gradientTransform="scale(1.6741492,0.59731832)"
       cx="68.57021"
       cy="127.89917"
       fx="63.821736"
       fy="133.66536"
       r="17.182573" />
    <radialGradient
       inkscape:collect="always"
       xlink:href="#linearGradient828"
       id="radialGradient5021"
       gradientUnits="userSpaceOnUse"
       gradientTransform="scale(1.0296369,0.97121618)"
       cx="68.089598"
       cy="95.460461"
       fx="68.089603"
       fy="95.460461"
       r="91.218673" />
    <linearGradient
       inkscape:collect="always"
       xlink:href="#linearGradient843"
       id="linearGradient5023"
       gradientUnits="userSpaceOnUse"
       gradientTransform="scale(1.4425953,0.69319512)"
       spreadMethod="reflect"
       x1="69.297048"
       y1="83.207832"
       x2="25.064139"
       y2="44.934326" />
    <radialGradient
       inkscape:collect="always"
       xlink:href="#linearGradient836"
       id="radialGradient5025"
       gradientUnits="userSpaceOnUse"
       gradientTransform="scale(1.6741492,0.59731832)"
       cx="68.57021"
       cy="127.89917"
       fx="63.821736"
       fy="133.66536"
       r="17.182573" />
  </defs>
  <metadata
     id="metadata7">
    <rdf:RDF>
      <cc:Work
         rdf:about="">
        <dc:format>image/svg+xml</dc:format>
        <dc:type
           rdf:resource="http://purl.org/dc/dcmitype/StillImage" />
        <dc:title></dc:title>
      </cc:Work>
    </rdf:RDF>
  </metadata>
  <g
     transform="translate(1630.4083,-78.48486)"
     id="layer1">
    <g
       transform="translate(44.39979,0)"
       id="g5713">
      <path
         d="m -551.42854,352.36218 a 211.42857,211.42857 0 1 1 -422.85715,0 211.42857,211.42857 0 1 1 422.85715,0 z"
         transform="matrix(0.47972974,0,0,0.47972974,-790.62306,237.97454)"
         id="path2985"
         style="fill:#2c5aa0;fill-opacity:1;fill-rule:nonzero;stroke:#000000;stroke-width:4.16901398;stroke-linejoin:bevel;stroke-miterlimit:4;stroke-opacity:1;stroke-dasharray:none;stroke-dashoffset:0" />
      <path
         d="m -740,326.64789 a 50,105.71429 0 1 1 -100,0 50,105.71429 0 1 1 100,0 z"
         transform="matrix(0.77142857,0,-0.27027027,0.44594595,-494.59087,214.203)"
         id="path3967-7"
         style="fill:url(#radialGradient5719);fill-opacity:1;fill-rule:nonzero;stroke:none" />
      <text
         x="-1204.6118"
         y="458.55219"
         id="text3755"
         xml:space="preserve"
         style="font-size:144px;font-style:normal;font-variant:normal;font-weight:normal;font-stretch:normal;line-height:125%;letter-spacing:0px;word-spacing:0px;fill:#000000;fill-opacity:1;stroke:none;font-family:Arial;-inkscape-font-specification:Arial"><tspan
           x="-1204.6118"
           y="458.55219"
           id="tspan3757"
           style="fill:#ffffff">A</tspan></text>
    </g>
    <g
       transform="translate(275.60018,0)"
       id="g5668">
      <path
         d="m -551.42854,352.36218 a 211.42857,211.42857 0 1 1 -422.85715,0 211.42857,211.42857 0 1 1 422.85715,0 z"
         transform="matrix(0.47972974,0,0,0.47972974,-259.69319,237.97454)"
         id="path2985-1"
         style="fill:#d35f5f;fill-opacity:1;fill-rule:nonzero;stroke:#000000;stroke-width:4.16901398;stroke-linejoin:bevel;stroke-miterlimit:4;stroke-opacity:1;stroke-dasharray:none;stroke-dashoffset:0" />
      <path
         d="m -740,326.64789 a 50,105.71429 0 1 1 -100,0 50,105.71429 0 1 1 100,0 z"
         transform="matrix(0.77142857,0,-0.27027027,0.44594595,43.48192,219.91728)"
         id="path3967-5"
         style="fill:url(#radialGradient5725);fill-opacity:1;fill-rule:nonzero;stroke:none" />
      <text
         x="-675.12329"
         y="458.55225"
         id="text3755-7"
         xml:space="preserve"
         style="font-size:144px;font-style:normal;font-variant:normal;font-weight:normal;font-stretch:normal;line-height:125%;letter-spacing:0px;word-spacing:0px;fill:#000000;fill-opacity:1;stroke:none;font-family:Arial;-inkscape-font-specification:Arial"><tspan
           x="-675.12329"
           y="458.55225"
           id="tspan3757-4"
           style="fill:#ffffff">B</tspan></text>
    </g>
    <text
       x="-773.17017"
       y="457.74365"
       id="text3817"
       xml:space="preserve"
       style="font-size:144px;font-style:normal;font-variant:normal;font-weight:normal;font-stretch:normal;line-height:125%;letter-spacing:0px;word-spacing:0px;fill:#000000;fill-opacity:1;stroke:none;font-family:Arial;-inkscape-font-specification:Arial"><tspan
         x="-773.17017"
         y="457.74365"
         id="tspan3819">+</tspan></text>
    <g
       transform="translate(248.78885,0)"
       id="g5556">
      <rect
         width="218.45142"
         height="101.42809"
         x="-79.064949"
         y="356.29913"
         id="rect3821"
         style="fill:#999999;fill-opacity:1;fill-rule:nonzero;stroke:none" />
      <path
         d="m 116.8372,571.81097 0,-347.46899 300.91697,173.7345 z"
         transform="matrix(0.57487214,0,0,0.55468483,69.12538,186.20618)"
         id="path3823"
         style="fill:#999999;fill-opacity:1;fill-rule:nonzero;stroke:none" />
    </g>
    <g
       transform="translate(331.42848,0)"
       id="g5780">
      <path
         d="m 1050.3454,406.37824 c 205.7143,2.85714 202.8572,0 202.8572,0"
         id="path3926"
         style="fill:none;stroke:#000000;stroke-width:10;stroke-linecap:butt;stroke-linejoin:miter;stroke-miterlimit:4;stroke-opacity:1;stroke-dasharray:none" />
      <path
         d="m -551.42854,352.36218 a 211.42857,211.42857 0 1 1 -422.85715,0 211.42857,211.42857 0 1 1 422.85715,0 z"
         transform="matrix(0.47972974,0,0,0.47972974,1362.7392,237.97454)"
         id="path2985-6"
         style="fill:#2c5aa0;fill-opacity:1;fill-rule:nonzero;stroke:#000000;stroke-width:4.16901398;stroke-linejoin:bevel;stroke-miterlimit:4;stroke-opacity:1;stroke-dasharray:none;stroke-dashoffset:0" />
      <path
         d="m -740,326.64789 a 50,105.71429 0 1 1 -100,0 50,105.71429 0 1 1 100,0 z"
         transform="matrix(0.77142857,0,-0.27027027,0.44594595,1662.3431,217.06014)"
         id="path3967-8"
         style="fill:url(#radialGradient5801);fill-opacity:1;fill-rule:nonzero;stroke:none" />
      <text
         x="948.75049"
         y="458.55219"
         id="text3755-2"
         xml:space="preserve"
         style="font-size:144px;font-style:normal;font-variant:normal;font-weight:normal;font-stretch:normal;line-height:125%;letter-spacing:0px;word-spacing:0px;fill:#000000;fill-opacity:1;stroke:none;font-family:Arial;-inkscape-font-specification:Arial"><tspan
           x="948.75049"
           y="458.55219"
           id="tspan3757-45"
           style="fill:#ffffff">A</tspan></text>
      <path
         d="m -551.42854,352.36218 a 211.42857,211.42857 0 1 1 -422.85715,0 211.42857,211.42857 0 1 1 422.85715,0 z"
         transform="matrix(0.47972974,0,0,0.47972974,1624.1678,237.97454)"
         id="path2985-1-8"
         style="fill:#d35f5f;fill-opacity:1;fill-rule:nonzero;stroke:#000000;stroke-width:4.16901398;stroke-linejoin:bevel;stroke-miterlimit:4;stroke-opacity:1;stroke-dasharray:none;stroke-dashoffset:0" />
      <path
         d="m -740,326.64789 a 50,105.71429 0 1 1 -100,0 50,105.71429 0 1 1 100,0 z"
         transform="matrix(0.77142857,0,-0.27027027,0.44594595,1916.6287,217.06014)"
         id="path3967-3"
         style="fill:url(#radialGradient5803);fill-opacity:1;fill-rule:nonzero;stroke:none" />
      <text
         x="1208.7377"
         y="458.55225"
         id="text3755-7-1"
         xml:space="preserve"
         style="font-size:144px;font-style:normal;font-variant:normal;font-weight:normal;font-stretch:normal;line-height:125%;letter-spacing:0px;word-spacing:0px;fill:#000000;fill-opacity:1;stroke:none;font-family:Arial;-inkscape-font-specification:Arial"><tspan
           x="1208.7377"
           y="458.55225"
           id="tspan3757-4-2"
           style="fill:#ffffff">B</tspan></text>
    </g>
    <g
       transform="translate(234.08564,0)"
       id="g5768">
      <path
         d="m -551.42854,352.36218 a 211.42857,211.42857 0 1 1 -422.85715,0 211.42857,211.42857 0 1 1 422.85715,0 z"
         transform="matrix(0.47972974,0,0,0.47972974,1209.7313,678.98891)"
         id="path2985-8"
         style="fill:#2c5aa0;fill-opacity:1;fill-rule:nonzero;stroke:#000000;stroke-width:4.16901398;stroke-linejoin:bevel;stroke-miterlimit:4;stroke-opacity:1;stroke-dasharray:none;stroke-dashoffset:0" />
      <path
         d="m -740,326.64789 a 50,105.71429 0 1 1 -100,0 50,105.71429 0 1 1 100,0 z"
         transform="matrix(0.77142857,0,-0.27027027,0.44594595,1505.7635,655.21741)"
         id="path3967-7-6"
         style="fill:url(#radialGradient5795);fill-opacity:1;fill-rule:nonzero;stroke:none" />
      <text
         x="795.74243"
         y="899.56665"
         id="text3755-4"
         xml:space="preserve"
         style="font-size:144px;font-style:normal;font-variant:normal;font-weight:normal;font-stretch:normal;line-height:125%;letter-spacing:0px;word-spacing:0px;fill:#000000;fill-opacity:1;stroke:none;font-family:Arial;-inkscape-font-specification:Arial"><tspan
           x="795.74243"
           y="899.56665"
           id="tspan3757-6"
           style="fill:#ffffff">A</tspan></text>
    </g>
    <g
       transform="translate(428.77147,0)"
       id="g5774">
      <path
         d="m -551.42854,352.36218 a 211.42857,211.42857 0 1 1 -422.85715,0 211.42857,211.42857 0 1 1 422.85715,0 z"
         transform="matrix(0.47972974,0,0,0.47972974,1777.1757,678.98891)"
         id="path2985-1-89"
         style="fill:#d35f5f;fill-opacity:1;fill-rule:nonzero;stroke:#000000;stroke-width:4.16901398;stroke-linejoin:bevel;stroke-miterlimit:4;stroke-opacity:1;stroke-dasharray:none;stroke-dashoffset:0" />
      <path
         d="m -740,326.64789 a 50,105.71429 0 1 1 -100,0 50,105.71429 0 1 1 100,0 z"
         transform="matrix(0.77142857,0,-0.27027027,0.44594595,2080.3509,660.93161)"
         id="path3967-5-8"
         style="fill:url(#radialGradient5791);fill-opacity:1;fill-rule:nonzero;stroke:none" />
      <text
         x="1361.7456"
         y="899.56677"
         id="text3755-7-3"
         xml:space="preserve"
         style="font-size:144px;font-style:normal;font-variant:normal;font-weight:normal;font-stretch:normal;line-height:125%;letter-spacing:0px;word-spacing:0px;fill:#000000;fill-opacity:1;stroke:none;font-family:Arial;-inkscape-font-specification:Arial"><tspan
           x="1361.7456"
           y="899.56677"
           id="tspan3757-4-5"
           style="fill:#ffffff">B</tspan></text>
    </g>
    <text
       x="1416.8699"
       y="898.758"
       id="text3817-5"
       xml:space="preserve"
       style="font-size:144px;font-style:normal;font-variant:normal;font-weight:normal;font-stretch:normal;line-height:125%;letter-spacing:0px;word-spacing:0px;fill:#000000;fill-opacity:1;stroke:none;font-family:Arial;-inkscape-font-specification:Arial"><tspan
         x="1416.8699"
         y="898.758"
         id="tspan3819-1">+</tspan></text>
    <g
       transform="translate(250.83312,0)"
       id="g5552">
      <rect
         width="218.45142"
         height="101.42809"
         x="-81.109184"
         y="797.31348"
         id="rect3821-5"
         style="fill:#999999;fill-opacity:1;fill-rule:nonzero;stroke:none" />
      <path
         d="m 116.8372,571.81097 0,-347.46899 300.91697,173.7345 z"
         transform="matrix(0.57487214,0,0,0.55468483,67.08109,627.22054)"
         id="path3823-5"
         style="fill:#999999;fill-opacity:1;fill-rule:nonzero;stroke:none" />
    </g>
    <g
       transform="translate(160.00008,0)"
       id="g5805">
      <path
         d="m -968.26611,847.39261 c 205.7143,2.8571 202.8571,0 202.8571,0"
         id="path3926-8"
         style="fill:none;stroke:#000000;stroke-width:10;stroke-linecap:butt;stroke-linejoin:miter;stroke-miterlimit:4;stroke-opacity:1;stroke-dasharray:none" />
      <path
         d="m -551.42854,352.36218 a 211.42857,211.42857 0 1 1 -422.85715,0 211.42857,211.42857 0 1 1 422.85715,0 z"
         transform="matrix(0.47972974,0,0,0.47972974,-655.87241,678.98891)"
         id="path2985-6-4"
         style="fill:#2c5aa0;fill-opacity:1;fill-rule:nonzero;stroke:#000000;stroke-width:4.16901398;stroke-linejoin:bevel;stroke-miterlimit:4;stroke-opacity:1;stroke-dasharray:none;stroke-dashoffset:0" />
      <path
         d="m -740,326.64789 a 50,105.71429 0 1 1 -100,0 50,105.71429 0 1 1 100,0 z"
         transform="matrix(0.77142857,0,-0.27027027,0.44594595,-356.26854,658.07451)"
         id="path3967-8-0"
         style="fill:url(#radialGradient5816);fill-opacity:1;fill-rule:nonzero;stroke:none" />
      <text
         x="-1069.8611"
         y="899.56665"
         id="text3755-2-5"
         xml:space="preserve"
         style="font-size:144px;font-style:normal;font-variant:normal;font-weight:normal;font-stretch:normal;line-height:125%;letter-spacing:0px;word-spacing:0px;fill:#000000;fill-opacity:1;stroke:none;font-family:Arial;-inkscape-font-specification:Arial"><tspan
           x="-1069.8611"
           y="899.56665"
           id="tspan3757-45-4"
           style="fill:#ffffff">A</tspan></text>
      <path
         d="m -551.42854,352.36218 a 211.42857,211.42857 0 1 1 -422.85715,0 211.42857,211.42857 0 1 1 422.85715,0 z"
         transform="matrix(0.47972974,0,0,0.47972974,-394.44384,678.98891)"
         id="path2985-1-8-7"
         style="fill:#d35f5f;fill-opacity:1;fill-rule:nonzero;stroke:#000000;stroke-width:4.16901398;stroke-linejoin:bevel;stroke-miterlimit:4;stroke-opacity:1;stroke-dasharray:none;stroke-dashoffset:0" />
      <path
         d="m -740,326.64789 a 50,105.71429 0 1 1 -100,0 50,105.71429 0 1 1 100,0 z"
         transform="matrix(0.77142857,0,-0.27027027,0.44594595,-101.98294,658.07451)"
         id="path3967-3-2"
         style="fill:url(#radialGradient5818);fill-opacity:1;fill-rule:nonzero;stroke:none" />
      <text
         x="-809.87384"
         y="899.56677"
         id="text3755-7-1-1"
         xml:space="preserve"
         style="font-size:144px;font-style:normal;font-variant:normal;font-weight:normal;font-stretch:normal;line-height:125%;letter-spacing:0px;word-spacing:0px;fill:#000000;fill-opacity:1;stroke:none;font-family:Arial;-inkscape-font-specification:Arial"><tspan
           x="-809.87384"
           y="899.56677"
           id="tspan3757-4-2-4"
           style="fill:#ffffff">B</tspan></text>
    </g>
    <g
       transform="translate(234.96808,0)"
       id="g5548">
      <rect
         width="218.45142"
         height="101.42809"
         x="-65.244179"
         y="1238.3279"
         id="rect3821-2"
         style="fill:#999999;fill-opacity:1;fill-rule:nonzero;stroke:none" />
      <path
         d="m 116.8372,571.81097 0,-347.46899 300.91697,173.7345 z"
         transform="matrix(0.57487214,0,0,0.55468483,82.94615,1068.2349)"
         id="path3823-3"
         style="fill:#999999;fill-opacity:1;fill-rule:nonzero;stroke:none" />
    </g>
    <g
       transform="translate(264.68031,0)"
       id="g5674">
      <path
         d="m -551.42854,352.36218 a 211.42857,211.42857 0 1 1 -422.85715,0 211.42857,211.42857 0 1 1 422.85715,0 z"
         transform="matrix(0.47972974,0,0,0.47972974,-248.77332,1120.0033)"
         id="path2985-1-4"
         style="fill:#89a02c;fill-opacity:1;fill-rule:nonzero;stroke:#000000;stroke-width:4.16901398;stroke-linejoin:bevel;stroke-miterlimit:4;stroke-opacity:1;stroke-dasharray:none;stroke-dashoffset:0" />
      <path
         d="m -740,326.64789 a 50,105.71429 0 1 1 -100,0 50,105.71429 0 1 1 100,0 z"
         transform="matrix(0.77142857,0,-0.27027027,0.44594595,54.40181,1101.9461)"
         id="path3967-5-0"
         style="fill:url(#radialGradient5727);fill-opacity:1;fill-rule:nonzero;stroke:none" />
      <text
         x="-667.4729"
         y="1340.5809"
         id="text3755-7-8"
         xml:space="preserve"
         style="font-size:144px;font-style:normal;font-variant:normal;font-weight:normal;font-stretch:normal;line-height:125%;letter-spacing:0px;word-spacing:0px;fill:#000000;fill-opacity:1;stroke:none;font-family:Arial;-inkscape-font-specification:Arial"><tspan
           x="-667.4729"
           y="1340.5809"
           id="tspan3757-4-8"
           style="fill:#ffffff">C</tspan></text>
    </g>
    <text
       x="-773.17017"
       y="1339.7723"
       id="text3817-1"
       xml:space="preserve"
       style="font-size:144px;font-style:normal;font-variant:normal;font-weight:normal;font-stretch:normal;line-height:125%;letter-spacing:0px;word-spacing:0px;fill:#000000;fill-opacity:1;stroke:none;font-family:Arial;-inkscape-font-specification:Arial"><tspan
         x="-773.17017"
         y="1339.7723"
         id="tspan3819-5">+</tspan></text>
    <g
       transform="translate(160.00001,0)"
       id="g5702">
      <path
         d="m -1349.3313,1288.407 c 205.7143,2.8572 202.8571,0 202.8571,0"
         id="path3926-2-6"
         style="fill:none;stroke:#000000;stroke-width:10;stroke-linecap:butt;stroke-linejoin:miter;stroke-miterlimit:4;stroke-opacity:1;stroke-dasharray:none" />
      <path
         d="m -551.42854,352.36218 a 211.42857,211.42857 0 1 1 -422.85715,0 211.42857,211.42857 0 1 1 422.85715,0 z"
         transform="matrix(0.47972974,0,0,0.47972974,-1036.9376,1120.0033)"
         id="path2985-6-46-0"
         style="fill:#2c5aa0;fill-opacity:1;fill-rule:nonzero;stroke:#000000;stroke-width:4.16901398;stroke-linejoin:bevel;stroke-miterlimit:4;stroke-opacity:1;stroke-dasharray:none;stroke-dashoffset:0" />
      <path
         d="m -740,326.64789 a 50,105.71429 0 1 1 -100,0 50,105.71429 0 1 1 100,0 z"
         transform="matrix(0.77142857,0,-0.27027027,0.44594595,-737.33368,1099.0889)"
         id="path3967-8-6-5"
         style="fill:url(#radialGradient5721);fill-opacity:1;fill-rule:nonzero;stroke:none" />
      <text
         x="-1450.9261"
         y="1340.5811"
         id="text3755-2-6-9"
         xml:space="preserve"
         style="font-size:144px;font-style:normal;font-variant:normal;font-weight:normal;font-stretch:normal;line-height:125%;letter-spacing:0px;word-spacing:0px;fill:#000000;fill-opacity:1;stroke:none;font-family:Arial;-inkscape-font-specification:Arial"><tspan
           x="-1450.9261"
           y="1340.5811"
           id="tspan3757-45-2-4"
           style="fill:#ffffff">A</tspan></text>
      <path
         d="m -551.42854,352.36218 a 211.42857,211.42857 0 1 1 -422.85715,0 211.42857,211.42857 0 1 1 422.85715,0 z"
         transform="matrix(0.47972974,0,0,0.47972974,-775.50898,1120.0033)"
         id="path2985-1-8-9-6"
         style="fill:#d35f5f;fill-opacity:1;fill-rule:nonzero;stroke:#000000;stroke-width:4.16901398;stroke-linejoin:bevel;stroke-miterlimit:4;stroke-opacity:1;stroke-dasharray:none;stroke-dashoffset:0" />
      <path
         d="m -740,326.64789 a 50,105.71429 0 1 1 -100,0 50,105.71429 0 1 1 100,0 z"
         transform="matrix(0.77142857,0,-0.27027027,0.44594595,-483.04807,1099.0889)"
         id="path3967-3-0-3"
         style="fill:url(#radialGradient5723);fill-opacity:1;fill-rule:nonzero;stroke:none" />
      <text
         x="-1190.939"
         y="1340.5811"
         id="text3755-7-1-4-4"
         xml:space="preserve"
         style="font-size:144px;font-style:normal;font-variant:normal;font-weight:normal;font-stretch:normal;line-height:125%;letter-spacing:0px;word-spacing:0px;fill:#000000;fill-opacity:1;stroke:none;font-family:Arial;-inkscape-font-specification:Arial"><tspan
           x="-1190.939"
           y="1340.5811"
           id="tspan3757-4-2-9-9"
           style="fill:#ffffff">B</tspan></text>
    </g>
    <g
       transform="translate(331.42862,0)"
       id="g5757">
      <path
         d="m 669.28034,1288.407 c 205.7143,2.8572 202.8571,0 202.8571,0"
         id="path3926-2"
         style="fill:none;stroke:#000000;stroke-width:10;stroke-linecap:butt;stroke-linejoin:miter;stroke-miterlimit:4;stroke-opacity:1;stroke-dasharray:none" />
      <path
         d="m -551.42854,352.36218 a 211.42857,211.42857 0 1 1 -422.85715,0 211.42857,211.42857 0 1 1 422.85715,0 z"
         transform="matrix(0.47972974,0,0,0.47972974,981.67404,1120.0033)"
         id="path2985-6-46"
         style="fill:#2c5aa0;fill-opacity:1;fill-rule:nonzero;stroke:#000000;stroke-width:4.16901398;stroke-linejoin:bevel;stroke-miterlimit:4;stroke-opacity:1;stroke-dasharray:none;stroke-dashoffset:0" />
      <path
         d="m -740,326.64789 a 50,105.71429 0 1 1 -100,0 50,105.71429 0 1 1 100,0 z"
         transform="matrix(0.77142857,0,-0.27027027,0.44594595,1281.2779,1099.0889)"
         id="path3967-8-6"
         style="fill:url(#radialGradient5797);fill-opacity:1;fill-rule:nonzero;stroke:none" />
      <text
         x="567.68542"
         y="1340.5809"
         id="text3755-2-6"
         xml:space="preserve"
         style="font-size:144px;font-style:normal;font-variant:normal;font-weight:normal;font-stretch:normal;line-height:125%;letter-spacing:0px;word-spacing:0px;fill:#000000;fill-opacity:1;stroke:none;font-family:Arial;-inkscape-font-specification:Arial"><tspan
           x="567.68542"
           y="1340.5809"
           id="tspan3757-45-2"
           style="fill:#ffffff">A</tspan></text>
      <path
         d="m -551.42854,352.36218 a 211.42857,211.42857 0 1 1 -422.85715,0 211.42857,211.42857 0 1 1 422.85715,0 z"
         transform="matrix(0.47972974,0,0,0.47972974,1243.1026,1120.0033)"
         id="path2985-1-8-9"
         style="fill:#89a02c;fill-opacity:1;fill-rule:nonzero;stroke:#000000;stroke-width:4.16901398;stroke-linejoin:bevel;stroke-miterlimit:4;stroke-opacity:1;stroke-dasharray:none;stroke-dashoffset:0" />
      <path
         d="m -740,326.64789 a 50,105.71429 0 1 1 -100,0 50,105.71429 0 1 1 100,0 z"
         transform="matrix(0.77142857,0,-0.27027027,0.44594595,1535.5635,1099.0889)"
         id="path3967-3-0"
         style="fill:url(#radialGradient5799);fill-opacity:1;fill-rule:nonzero;stroke:none" />
      <text
         x="824.40295"
         y="1340.5809"
         id="text3755-7-1-4"
         xml:space="preserve"
         style="font-size:144px;font-style:normal;font-variant:normal;font-weight:normal;font-stretch:normal;line-height:125%;letter-spacing:0px;word-spacing:0px;fill:#000000;fill-opacity:1;stroke:none;font-family:Arial;-inkscape-font-specification:Arial"><tspan
           x="824.40295"
           y="1340.5809"
           id="tspan3757-4-2-9"
           style="fill:#ffffff">C</tspan></text>
    </g>
    <g
       transform="translate(436.10897,0)"
       id="g5751">
      <path
         d="m -551.42854,352.36218 a 211.42857,211.42857 0 1 1 -422.85715,0 211.42857,211.42857 0 1 1 422.85715,0 z"
         transform="matrix(0.47972974,0,0,0.47972974,1769.8382,1120.0033)"
         id="path2985-1-89-1"
         style="fill:#d35f5f;fill-opacity:1;fill-rule:nonzero;stroke:#000000;stroke-width:4.16901398;stroke-linejoin:bevel;stroke-miterlimit:4;stroke-opacity:1;stroke-dasharray:none;stroke-dashoffset:0" />
      <path
         d="m -740,326.64789 a 50,105.71429 0 1 1 -100,0 50,105.71429 0 1 1 100,0 z"
         transform="matrix(0.77142857,0,-0.27027027,0.44594595,2073.0134,1101.946)"
         id="path3967-5-8-2"
         style="fill:url(#radialGradient5793);fill-opacity:1;fill-rule:nonzero;stroke:none" />
      <text
         x="1354.4082"
         y="1340.5811"
         id="text3755-7-3-8"
         xml:space="preserve"
         style="font-size:144px;font-style:normal;font-variant:normal;font-weight:normal;font-stretch:normal;line-height:125%;letter-spacing:0px;word-spacing:0px;fill:#000000;fill-opacity:1;stroke:none;font-family:Arial;-inkscape-font-specification:Arial"><tspan
           x="1354.4082"
           y="1340.5811"
           id="tspan3757-4-5-8"
           style="fill:#ffffff">B</tspan></text>
    </g>
    <text
       x="1416.8699"
       y="1339.7723"
       id="text3817-5-1"
       xml:space="preserve"
       style="font-size:144px;font-style:normal;font-variant:normal;font-weight:normal;font-stretch:normal;line-height:125%;letter-spacing:0px;word-spacing:0px;fill:#000000;fill-opacity:1;stroke:none;font-family:Arial;-inkscape-font-specification:Arial"><tspan
         x="1416.8699"
         y="1339.7723"
         id="tspan3819-1-8">+</tspan></text>
    <g
       transform="translate(252.11093,0)"
       id="g5544">
      <rect
         width="218.45142"
         height="101.42809"
         x="-82.387024"
         y="1679.3423"
         id="rect3821-2-2"
         style="fill:#999999;fill-opacity:1;fill-rule:nonzero;stroke:none" />
      <path
         d="m 116.8372,571.81097 0,-347.46899 300.91697,173.7345 z"
         transform="matrix(0.57487214,0,0,0.55468483,65.80331,1509.2493)"
         id="path3823-3-2"
         style="fill:#999999;fill-opacity:1;fill-rule:nonzero;stroke:none" />
    </g>
    <text
       x="-773.17017"
       y="1780.7867"
       id="text3817-1-4"
       xml:space="preserve"
       style="font-size:144px;font-style:normal;font-variant:normal;font-weight:normal;font-stretch:normal;line-height:125%;letter-spacing:0px;word-spacing:0px;fill:#000000;fill-opacity:1;stroke:none;font-family:Arial;-inkscape-font-specification:Arial"><tspan
         x="-773.17017"
         y="1780.7867"
         id="tspan3819-5-1">+</tspan></text>
    <g
       transform="translate(160,0)"
       id="g5691">
      <path
         d="m -1349.3313,1729.4214 c 205.7143,2.8572 202.8571,0 202.8571,0"
         id="path3926-2-6-9"
         style="fill:none;stroke:#000000;stroke-width:10;stroke-linecap:butt;stroke-linejoin:miter;stroke-miterlimit:4;stroke-opacity:1;stroke-dasharray:none" />
      <path
         d="m -551.42854,352.36218 a 211.42857,211.42857 0 1 1 -422.85715,0 211.42857,211.42857 0 1 1 422.85715,0 z"
         transform="matrix(0.47972974,0,0,0.47972974,-1036.9376,1561.0177)"
         id="path2985-6-46-0-4"
         style="fill:#2c5aa0;fill-opacity:1;fill-rule:nonzero;stroke:#000000;stroke-width:4.16901398;stroke-linejoin:bevel;stroke-miterlimit:4;stroke-opacity:1;stroke-dasharray:none;stroke-dashoffset:0" />
      <path
         d="m -740,326.64789 a 50,105.71429 0 1 1 -100,0 50,105.71429 0 1 1 100,0 z"
         transform="matrix(0.77142857,0,-0.27027027,0.44594595,-737.33365,1540.1033)"
         id="path3967-8-6-5-4"
         style="fill:url(#radialGradient5836);fill-opacity:1;fill-rule:nonzero;stroke:none" />
      <text
         x="-1450.9261"
         y="1781.5955"
         id="text3755-2-6-9-6"
         xml:space="preserve"
         style="font-size:144px;font-style:normal;font-variant:normal;font-weight:normal;font-stretch:normal;line-height:125%;letter-spacing:0px;word-spacing:0px;fill:#000000;fill-opacity:1;stroke:none;font-family:Arial;-inkscape-font-specification:Arial"><tspan
           x="-1450.9261"
           y="1781.5955"
           id="tspan3757-45-2-4-9"
           style="fill:#ffffff">A</tspan></text>
      <path
         d="m -551.42854,352.36218 a 211.42857,211.42857 0 1 1 -422.85715,0 211.42857,211.42857 0 1 1 422.85715,0 z"
         transform="matrix(0.47972974,0,0,0.47972974,-775.50895,1561.0177)"
         id="path2985-1-8-9-6-8"
         style="fill:#d35f5f;fill-opacity:1;fill-rule:nonzero;stroke:#000000;stroke-width:4.16901398;stroke-linejoin:bevel;stroke-miterlimit:4;stroke-opacity:1;stroke-dasharray:none;stroke-dashoffset:0" />
      <path
         d="m -740,326.64789 a 50,105.71429 0 1 1 -100,0 50,105.71429 0 1 1 100,0 z"
         transform="matrix(0.77142857,0,-0.27027027,0.44594595,-483.04804,1540.1033)"
         id="path3967-3-0-3-5"
         style="fill:url(#radialGradient5838);fill-opacity:1;fill-rule:nonzero;stroke:none" />
      <text
         x="-1190.939"
         y="1781.5955"
         id="text3755-7-1-4-4-6"
         xml:space="preserve"
         style="font-size:144px;font-style:normal;font-variant:normal;font-weight:normal;font-stretch:normal;line-height:125%;letter-spacing:0px;word-spacing:0px;fill:#000000;fill-opacity:1;stroke:none;font-family:Arial;-inkscape-font-specification:Arial"><tspan
           x="-1190.939"
           y="1781.5955"
           id="tspan3757-4-2-9-9-6"
           style="fill:#ffffff">B</tspan></text>
    </g>
    <g
       transform="translate(159.99998,0)"
       id="g5680">
      <path
         d="m -587.20104,1729.4214 c 205.71433,2.8572 202.85713,0 202.85713,0"
         id="path3926-2-6-9-8"
         style="fill:none;stroke:#000000;stroke-width:10;stroke-linecap:butt;stroke-linejoin:miter;stroke-miterlimit:4;stroke-opacity:1;stroke-dasharray:none" />
      <path
         d="m -551.42854,352.36218 a 211.42857,211.42857 0 1 1 -422.85715,0 211.42857,211.42857 0 1 1 422.85715,0 z"
         transform="matrix(0.47972974,0,0,0.47972974,-274.80731,1561.0177)"
         id="path2985-6-46-0-4-3"
         style="fill:#89a02c;fill-opacity:1;fill-rule:nonzero;stroke:#000000;stroke-width:4.16901398;stroke-linejoin:bevel;stroke-miterlimit:4;stroke-opacity:1;stroke-dasharray:none;stroke-dashoffset:0" />
      <path
         d="m -740,326.64789 a 50,105.71429 0 1 1 -100,0 50,105.71429 0 1 1 100,0 z"
         transform="matrix(0.77142857,0,-0.27027027,0.44594595,24.79659,1540.1033)"
         id="path3967-8-6-5-4-2"
         style="fill:url(#radialGradient5832);fill-opacity:1;fill-rule:nonzero;stroke:none" />
      <text
         x="-693.50696"
         y="1781.5955"
         id="text3755-2-6-9-6-8"
         xml:space="preserve"
         style="font-size:144px;font-style:normal;font-variant:normal;font-weight:normal;font-stretch:normal;line-height:125%;letter-spacing:0px;word-spacing:0px;fill:#000000;fill-opacity:1;stroke:none;font-family:Arial;-inkscape-font-specification:Arial"><tspan
           x="-693.50696"
           y="1781.5955"
           id="tspan3757-45-2-4-9-6"
           style="fill:#ffffff">C</tspan></text>
      <path
         d="m -551.42854,352.36218 a 211.42857,211.42857 0 1 1 -422.85715,0 211.42857,211.42857 0 1 1 422.85715,0 z"
         transform="matrix(0.47972974,0,0,0.47972974,-13.37871,1561.0177)"
         id="path2985-1-8-9-6-8-0"
         style="fill:#d4aa00;fill-opacity:1;fill-rule:nonzero;stroke:#000000;stroke-width:4.16901398;stroke-linejoin:bevel;stroke-miterlimit:4;stroke-opacity:1;stroke-dasharray:none;stroke-dashoffset:0" />
      <path
         d="m -740,326.64789 a 50,105.71429 0 1 1 -100,0 50,105.71429 0 1 1 100,0 z"
         transform="matrix(0.77142857,0,-0.27027027,0.44594595,279.08217,1540.1033)"
         id="path3967-3-0-3-5-1"
         style="fill:url(#radialGradient5834);fill-opacity:1;fill-rule:nonzero;stroke:none" />
      <text
         x="-433.06271"
         y="1781.5955"
         id="text3755-7-1-4-4-6-2"
         xml:space="preserve"
         style="font-size:144px;font-style:normal;font-variant:normal;font-weight:normal;font-stretch:normal;line-height:125%;letter-spacing:0px;word-spacing:0px;fill:#000000;fill-opacity:1;stroke:none;font-family:Arial;-inkscape-font-specification:Arial"><tspan
           x="-433.06271"
           y="1781.5955"
           id="tspan3757-4-2-9-9-6-6"
           style="fill:#ffffff">D</tspan></text>
    </g>
    <path
       d="m 1000.7089,1729.4214 c 205.7143,2.8572 202.8571,0 202.8571,0"
       id="path3926-2-9"
       style="fill:none;stroke:#000000;stroke-width:10;stroke-linecap:butt;stroke-linejoin:miter;stroke-miterlimit:4;stroke-opacity:1;stroke-dasharray:none" />
    <path
       d="m -551.42854,352.36218 a 211.42857,211.42857 0 1 1 -422.85715,0 211.42857,211.42857 0 1 1 422.85715,0 z"
       transform="matrix(0.47972974,0,0,0.47972974,1313.1026,1561.0177)"
       id="path2985-6-46-8"
       style="fill:#2c5aa0;fill-opacity:1;fill-rule:nonzero;stroke:#000000;stroke-width:4.16901398;stroke-linejoin:bevel;stroke-miterlimit:4;stroke-opacity:1;stroke-dasharray:none;stroke-dashoffset:0" />
    <path
       d="m -740,326.64789 a 50,105.71429 0 1 1 -100,0 50,105.71429 0 1 1 100,0 z"
       transform="matrix(0.77142857,0,-0.27027027,0.44594595,1612.7065,1540.1033)"
       id="path3967-8-6-2"
       style="fill:url(#radialGradient5824);fill-opacity:1;fill-rule:nonzero;stroke:none" />
    <text
       x="899.11401"
       y="1781.5955"
       id="text3755-2-6-2"
       xml:space="preserve"
       style="font-size:144px;font-style:normal;font-variant:normal;font-weight:normal;font-stretch:normal;line-height:125%;letter-spacing:0px;word-spacing:0px;fill:#000000;fill-opacity:1;stroke:none;font-family:Arial;-inkscape-font-specification:Arial"><tspan
         x="899.11401"
         y="1781.5955"
         id="tspan3757-45-2-7"
         style="fill:#ffffff">A</tspan></text>
    <g
       transform="translate(450,-1.4285714)"
       id="g3568">
      <path
         d="m -551.42854,352.36218 a 211.42857,211.42857 0 1 1 -422.85715,0 211.42857,211.42857 0 1 1 422.85715,0 z"
         transform="matrix(0.47972974,0,0,0.47972974,1574.5313,1561.0177)"
         id="path2985-1-8-9-8"
         style="fill:#89a02c;fill-opacity:1;fill-rule:nonzero;stroke:#000000;stroke-width:4.16901398;stroke-linejoin:bevel;stroke-miterlimit:4;stroke-opacity:1;stroke-dasharray:none;stroke-dashoffset:0" />
      <g
         id="g3563">
        <path
           d="m -740,326.64789 a 50,105.71429 0 1 1 -100,0 50,105.71429 0 1 1 100,0 z"
           transform="matrix(0.77142857,0,-0.27027027,0.44594595,1866.992,1540.1033)"
           id="path3967-3-0-5"
           style="fill:url(#radialGradient3575);fill-opacity:1;fill-rule:nonzero;stroke:none" />
        <text
           x="1155.8315"
           y="1781.5955"
           id="text3755-7-1-4-8"
           xml:space="preserve"
           style="font-size:144px;font-style:normal;font-variant:normal;font-weight:normal;font-stretch:normal;line-height:125%;letter-spacing:0px;word-spacing:0px;fill:#000000;fill-opacity:1;stroke:none;font-family:Arial;-inkscape-font-specification:Arial"><tspan
             x="1155.8315"
             y="1781.5955"
             id="tspan3757-4-2-9-3"
             style="fill:#ffffff">C</tspan></text>
      </g>
    </g>
    <text
       x="1416.8699"
       y="1780.7867"
       id="text3817-5-1-2"
       xml:space="preserve"
       style="font-size:144px;font-style:normal;font-variant:normal;font-weight:normal;font-stretch:normal;line-height:125%;letter-spacing:0px;word-spacing:0px;fill:#000000;fill-opacity:1;stroke:none;font-family:Arial;-inkscape-font-specification:Arial"><tspan
         x="1416.8699"
         y="1780.7867"
         id="tspan3819-1-8-6">+</tspan></text>
    <path
       d="m 1762.8392,1729.4214 c 205.7143,2.8572 202.8571,0 202.8571,0"
       id="path3926-2-6-9-8-7"
       style="fill:none;stroke:#000000;stroke-width:10;stroke-linecap:butt;stroke-linejoin:miter;stroke-miterlimit:4;stroke-opacity:1;stroke-dasharray:none" />
    <g
       transform="translate(212.77287,0.22407813)"
       id="g3548">
      <path
         d="m -551.42854,352.36218 a 211.42857,211.42857 0 1 1 -422.85715,0 211.42857,211.42857 0 1 1 422.85715,0 z"
         transform="matrix(0.47972974,0,0,0.47972974,2075.2329,1561.0177)"
         id="path2985-6-46-0-4-3-8"
         style="fill:#d35f5f;fill-opacity:1;fill-rule:nonzero;stroke:#000000;stroke-width:4.16901398;stroke-linejoin:bevel;stroke-miterlimit:4;stroke-opacity:1;stroke-dasharray:none;stroke-dashoffset:0" />
      <path
         d="m -740,326.64789 a 50,105.71429 0 1 1 -100,0 50,105.71429 0 1 1 100,0 z"
         transform="matrix(0.77142857,0,-0.27027027,0.44594595,2374.8368,1540.1033)"
         id="path3967-8-6-5-4-2-8"
         style="fill:url(#radialGradient5820);fill-opacity:1;fill-rule:nonzero;stroke:none" />
      <text
         x="1659.8027"
         y="1781.5953"
         id="text3755-2-6-9-6-8-1"
         xml:space="preserve"
         style="font-size:144px;font-style:normal;font-variant:normal;font-weight:normal;font-stretch:normal;line-height:125%;letter-spacing:0px;word-spacing:0px;fill:#000000;fill-opacity:1;stroke:none;font-family:Arial;-inkscape-font-specification:Arial"><tspan
           x="1659.8027"
           y="1781.5953"
           id="tspan3757-45-2-4-9-6-6"
           style="fill:#ffffff">B</tspan></text>
    </g>
    <g
       transform="translate(-770.32797,0)"
       id="g3577">
      <path
         d="m -551.42854,352.36218 a 211.42857,211.42857 0 1 1 -422.85715,0 211.42857,211.42857 0 1 1 422.85715,0 z"
         transform="matrix(0.47972974,0,0,0.47972974,2336.6615,1561.0177)"
         id="path2985-1-8-9-6-8-0-3"
         style="fill:#d4aa00;fill-opacity:1;fill-rule:nonzero;stroke:#000000;stroke-width:4.16901398;stroke-linejoin:bevel;stroke-miterlimit:4;stroke-opacity:1;stroke-dasharray:none;stroke-dashoffset:0" />
      <path
         d="m -740,326.64789 a 50,105.71429 0 1 1 -100,0 50,105.71429 0 1 1 100,0 z"
         transform="matrix(0.77142857,0,-0.27027027,0.44594595,2629.1224,1540.1033)"
         id="path3967-3-0-3-5-1-8"
         style="fill:url(#radialGradient5822);fill-opacity:1;fill-rule:nonzero;stroke:none" />
      <text
         x="1916.9774"
         y="1781.5953"
         id="text3755-7-1-4-4-6-2-7"
         xml:space="preserve"
         style="font-size:144px;font-style:normal;font-variant:normal;font-weight:normal;font-stretch:normal;line-height:125%;letter-spacing:0px;word-spacing:0px;fill:#000000;fill-opacity:1;stroke:none;font-family:Arial;-inkscape-font-specification:Arial"><tspan
           x="1916.9774"
           y="1781.5953"
           id="tspan3757-4-2-9-9-6-6-6"
           style="fill:#ffffff">D</tspan></text>
    </g>
  </g>
  <g
     transform="translate(1827.0714,50.958642)"
     id="g3773">
    <path
       inkscape:connector-curvature="0"
       style="fill:url(#radialGradient832);stroke:#000000;stroke-width:1pt"
       sodipodi:nodetypes="ccssss"
       id="path825"
       d="m 85.75,55.3 c -20,5 -45,-5 -50,35 -5,40 30,115 60,105 15,-5 10,-5 30,0 40,10 80,-89 60,-120 -20,-30 -60,-30 -100,-20 z" />
    <g
       transform="translate(-19.25,-19.7)"
       id="g863">
      <path
         inkscape:connector-curvature="0"
         style="fill:url(#linearGradient831);stroke:#000000;stroke-width:1pt"
         sodipodi:nodetypes="cscsc"
         id="path842"
         d="M 130,80 C 120,50 95,35 70,35 c -10,0 -20,0 -35,5 15,10 25,25 45,25 15,0 40,12 50,15 z" />
      <path
         inkscape:connector-curvature="0"
         style="fill:none;stroke:#000000;stroke-width:1pt"
         sodipodi:nodetypes="cc"
         id="path847"
         d="m 35,40 c 35,5 70,10 95,40" />
      <path
         inkscape:connector-curvature="0"
         style="fill:none;stroke:#000000;stroke-width:0.625"
         sodipodi:nodetypes="ccc"
         id="path857"
         d="m 55,35.15 c 4,1 7,5.85 10,9.85 -5,6 -9.5,5 -16.7,5.15" />
      <path
         inkscape:connector-curvature="0"
         style="fill:none;stroke:#000000;stroke-width:0.625"
         sodipodi:nodetypes="ccc"
         id="path858"
         d="m 72,35 c 8,4 10,8 13,15 -3,4 -9.75,10.125 -20.75,11.125" />
      <path
         inkscape:connector-curvature="0"
         style="fill:none;stroke:#000000;stroke-width:0.625"
         sodipodi:nodetypes="ccc"
         id="path859"
         d="m 92,39 c 5,4 9.5,13.5 10.5,18.5 C 97.5,60.5 90,65 80,65" />
      <path
         inkscape:connector-curvature="0"
         style="fill:none;stroke:#000000;stroke-width:0.625"
         sodipodi:nodetypes="ccc"
         id="path862"
         d="m 110,50 c 5.5,7 3,9 5,15 -6,1 -8,4 -15,4" />
    </g>
    <path
       inkscape:connector-curvature="0"
       style="fill:url(#radialGradient853);fill-opacity:1;fill-rule:evenodd;stroke:none"
       sodipodi:nodetypes="cccc"
       id="path852"
       d="m 75.75,70.3 c 5,-15 60,-20 65,0 -15,5 -20,10 -35,10 -15,0 -20,-5 -30,-10 z" />
    <path
       inkscape:connector-curvature="0"
       style="fill:#af6700;stroke:#000000;stroke-width:1pt;stroke-linejoin:bevel"
       sodipodi:nodetypes="ccsssc"
       id="path841"
       d="m 110.75,80 -5,0.3 c 0,-25 5,-45 10,-55 5,-10 7,-18 15,-10 5,5 -6.85,3.68 -10,10 -5,10 -10,25 -10,54.7 z" />
    <path
       inkscape:connector-curvature="0"
       style="fill:none;stroke:#000000;stroke-width:1pt;stroke-linecap:round;stroke-linejoin:round;stroke-opacity:1"
       sodipodi:nodetypes="ccc"
       id="path854"
       d="m 140.75,70.3 c -10,5 -20,10 -35,10 -15,0 -20,-5 -30,-10" />
  </g>
  <g
     id="g4937"
     transform="translate(1827.0714,496.95864)">
    <path
       d="m 85.75,55.3 c -20,5 -45,-5 -50,35 -5,40 30,115 60,105 15,-5 10,-5 30,0 40,10 80,-89 60,-120 -20,-30 -60,-30 -100,-20 z"
       id="path4939"
       sodipodi:nodetypes="ccssss"
       style="fill:url(#radialGradient4961);stroke:#000000;stroke-width:1pt"
       inkscape:connector-curvature="0" />
    <g
       id="g4941"
       transform="translate(-19.25,-19.7)">
      <path
         d="M 130,80 C 120,50 95,35 70,35 c -10,0 -20,0 -35,5 15,10 25,25 45,25 15,0 40,12 50,15 z"
         id="path4943"
         sodipodi:nodetypes="cscsc"
         style="fill:url(#linearGradient4963);stroke:#000000;stroke-width:1pt"
         inkscape:connector-curvature="0" />
      <path
         d="m 35,40 c 35,5 70,10 95,40"
         id="path4945"
         sodipodi:nodetypes="cc"
         style="fill:none;stroke:#000000;stroke-width:1pt"
         inkscape:connector-curvature="0" />
      <path
         d="m 55,35.15 c 4,1 7,5.85 10,9.85 -5,6 -9.5,5 -16.7,5.15"
         id="path4947"
         sodipodi:nodetypes="ccc"
         style="fill:none;stroke:#000000;stroke-width:0.625"
         inkscape:connector-curvature="0" />
      <path
         d="m 72,35 c 8,4 10,8 13,15 -3,4 -9.75,10.125 -20.75,11.125"
         id="path4949"
         sodipodi:nodetypes="ccc"
         style="fill:none;stroke:#000000;stroke-width:0.625"
         inkscape:connector-curvature="0" />
      <path
         d="m 92,39 c 5,4 9.5,13.5 10.5,18.5 C 97.5,60.5 90,65 80,65"
         id="path4951"
         sodipodi:nodetypes="ccc"
         style="fill:none;stroke:#000000;stroke-width:0.625"
         inkscape:connector-curvature="0" />
      <path
         d="m 110,50 c 5.5,7 3,9 5,15 -6,1 -8,4 -15,4"
         id="path4953"
         sodipodi:nodetypes="ccc"
         style="fill:none;stroke:#000000;stroke-width:0.625"
         inkscape:connector-curvature="0" />
    </g>
    <path
       d="m 75.75,70.3 c 5,-15 60,-20 65,0 -15,5 -20,10 -35,10 -15,0 -20,-5 -30,-10 z"
       id="path4955"
       sodipodi:nodetypes="cccc"
       style="fill:url(#radialGradient4965);fill-opacity:1;fill-rule:evenodd;stroke:none"
       inkscape:connector-curvature="0" />
    <path
       d="m 110.75,80 -5,0.3 c 0,-25 5,-45 10,-55 5,-10 7,-18 15,-10 5,5 -6.85,3.68 -10,10 -5,10 -10,25 -10,54.7 z"
       id="path4957"
       sodipodi:nodetypes="ccsssc"
       style="fill:#af6700;stroke:#000000;stroke-width:1pt;stroke-linejoin:bevel"
       inkscape:connector-curvature="0" />
    <path
       d="m 140.75,70.3 c -10,5 -20,10 -35,10 -15,0 -20,-5 -30,-10"
       id="path4959"
       sodipodi:nodetypes="ccc"
       style="fill:none;stroke:#000000;stroke-width:1pt;stroke-linecap:round;stroke-linejoin:round;stroke-opacity:1"
       inkscape:connector-curvature="0" />
  </g>
  <g
     transform="translate(1827.0714,938.95864)"
     id="g4967">
    <path
       inkscape:connector-curvature="0"
       style="fill:url(#radialGradient4991);stroke:#000000;stroke-width:1pt"
       sodipodi:nodetypes="ccssss"
       id="path4969"
       d="m 85.75,55.3 c -20,5 -45,-5 -50,35 -5,40 30,115 60,105 15,-5 10,-5 30,0 40,10 80,-89 60,-120 -20,-30 -60,-30 -100,-20 z" />
    <g
       transform="translate(-19.25,-19.7)"
       id="g4971">
      <path
         inkscape:connector-curvature="0"
         style="fill:url(#linearGradient4993);stroke:#000000;stroke-width:1pt"
         sodipodi:nodetypes="cscsc"
         id="path4973"
         d="M 130,80 C 120,50 95,35 70,35 c -10,0 -20,0 -35,5 15,10 25,25 45,25 15,0 40,12 50,15 z" />
      <path
         inkscape:connector-curvature="0"
         style="fill:none;stroke:#000000;stroke-width:1pt"
         sodipodi:nodetypes="cc"
         id="path4975"
         d="m 35,40 c 35,5 70,10 95,40" />
      <path
         inkscape:connector-curvature="0"
         style="fill:none;stroke:#000000;stroke-width:0.625"
         sodipodi:nodetypes="ccc"
         id="path4977"
         d="m 55,35.15 c 4,1 7,5.85 10,9.85 -5,6 -9.5,5 -16.7,5.15" />
      <path
         inkscape:connector-curvature="0"
         style="fill:none;stroke:#000000;stroke-width:0.625"
         sodipodi:nodetypes="ccc"
         id="path4979"
         d="m 72,35 c 8,4 10,8 13,15 -3,4 -9.75,10.125 -20.75,11.125" />
      <path
         inkscape:connector-curvature="0"
         style="fill:none;stroke:#000000;stroke-width:0.625"
         sodipodi:nodetypes="ccc"
         id="path4981"
         d="m 92,39 c 5,4 9.5,13.5 10.5,18.5 C 97.5,60.5 90,65 80,65" />
      <path
         inkscape:connector-curvature="0"
         style="fill:none;stroke:#000000;stroke-width:0.625"
         sodipodi:nodetypes="ccc"
         id="path4983"
         d="m 110,50 c 5.5,7 3,9 5,15 -6,1 -8,4 -15,4" />
    </g>
    <path
       inkscape:connector-curvature="0"
       style="fill:url(#radialGradient4995);fill-opacity:1;fill-rule:evenodd;stroke:none"
       sodipodi:nodetypes="cccc"
       id="path4985"
       d="m 75.75,70.3 c 5,-15 60,-20 65,0 -15,5 -20,10 -35,10 -15,0 -20,-5 -30,-10 z" />
    <path
       inkscape:connector-curvature="0"
       style="fill:#af6700;stroke:#000000;stroke-width:1pt;stroke-linejoin:bevel"
       sodipodi:nodetypes="ccsssc"
       id="path4987"
       d="m 110.75,80 -5,0.3 c 0,-25 5,-45 10,-55 5,-10 7,-18 15,-10 5,5 -6.85,3.68 -10,10 -5,10 -10,25 -10,54.7 z" />
    <path
       inkscape:connector-curvature="0"
       style="fill:none;stroke:#000000;stroke-width:1pt;stroke-linecap:round;stroke-linejoin:round;stroke-opacity:1"
       sodipodi:nodetypes="ccc"
       id="path4989"
       d="m 140.75,70.3 c -10,5 -20,10 -35,10 -15,0 -20,-5 -30,-10" />
  </g>
  <g
     id="g4997"
     transform="translate(1827.0714,1378.9586)">
    <path
       d="m 85.75,55.3 c -20,5 -45,-5 -50,35 -5,40 30,115 60,105 15,-5 10,-5 30,0 40,10 80,-89 60,-120 -20,-30 -60,-30 -100,-20 z"
       id="path4999"
       sodipodi:nodetypes="ccssss"
       style="fill:url(#radialGradient5021);stroke:#000000;stroke-width:1pt"
       inkscape:connector-curvature="0" />
    <g
       id="g5001"
       transform="translate(-19.25,-19.7)">
      <path
         d="M 130,80 C 120,50 95,35 70,35 c -10,0 -20,0 -35,5 15,10 25,25 45,25 15,0 40,12 50,15 z"
         id="path5003"
         sodipodi:nodetypes="cscsc"
         style="fill:url(#linearGradient5023);stroke:#000000;stroke-width:1pt"
         inkscape:connector-curvature="0" />
      <path
         d="m 35,40 c 35,5 70,10 95,40"
         id="path5005"
         sodipodi:nodetypes="cc"
         style="fill:none;stroke:#000000;stroke-width:1pt"
         inkscape:connector-curvature="0" />
      <path
         d="m 55,35.15 c 4,1 7,5.85 10,9.85 -5,6 -9.5,5 -16.7,5.15"
         id="path5007"
         sodipodi:nodetypes="ccc"
         style="fill:none;stroke:#000000;stroke-width:0.625"
         inkscape:connector-curvature="0" />
      <path
         d="m 72,35 c 8,4 10,8 13,15 -3,4 -9.75,10.125 -20.75,11.125"
         id="path5009"
         sodipodi:nodetypes="ccc"
         style="fill:none;stroke:#000000;stroke-width:0.625"
         inkscape:connector-curvature="0" />
      <path
         d="m 92,39 c 5,4 9.5,13.5 10.5,18.5 C 97.5,60.5 90,65 80,65"
         id="path5011"
         sodipodi:nodetypes="ccc"
         style="fill:none;stroke:#000000;stroke-width:0.625"
         inkscape:connector-curvature="0" />
      <path
         d="m 110,50 c 5.5,7 3,9 5,15 -6,1 -8,4 -15,4"
         id="path5013"
         sodipodi:nodetypes="ccc"
         style="fill:none;stroke:#000000;stroke-width:0.625"
         inkscape:connector-curvature="0" />
    </g>
    <path
       d="m 75.75,70.3 c 5,-15 60,-20 65,0 -15,5 -20,10 -35,10 -15,0 -20,-5 -30,-10 z"
       id="path5015"
       sodipodi:nodetypes="cccc"
       style="fill:url(#radialGradient5025);fill-opacity:1;fill-rule:evenodd;stroke:none"
       inkscape:connector-curvature="0" />
    <path
       d="m 110.75,80 -5,0.3 c 0,-25 5,-45 10,-55 5,-10 7,-18 15,-10 5,5 -6.85,3.68 -10,10 -5,10 -10,25 -10,54.7 z"
       id="path5017"
       sodipodi:nodetypes="ccsssc"
       style="fill:#af6700;stroke:#000000;stroke-width:1pt;stroke-linejoin:bevel"
       inkscape:connector-curvature="0" />
    <path
       d="m 140.75,70.3 c -10,5 -20,10 -35,10 -15,0 -20,-5 -30,-10"
       id="path5019"
       sodipodi:nodetypes="ccc"
       style="fill:none;stroke:#000000;stroke-width:1pt;stroke-linecap:round;stroke-linejoin:round;stroke-opacity:1"
       inkscape:connector-curvature="0" />
  </g>
</svg>
