<?xml version="1.0" encoding="UTF-8" standalone="no"?>
<!-- Created with Inkscape (http://www.inkscape.org/) -->

<svg
   xmlns:dc="http://purl.org/dc/elements/1.1/"
   xmlns:cc="http://creativecommons.org/ns#"
   xmlns:rdf="http://www.w3.org/1999/02/22-rdf-syntax-ns#"
   xmlns:svg="http://www.w3.org/2000/svg"
   xmlns="http://www.w3.org/2000/svg"
   xmlns:xlink="http://www.w3.org/1999/xlink"
   xmlns:sodipodi="http://sodipodi.sourceforge.net/DTD/sodipodi-0.dtd"
   xmlns:inkscape="http://www.inkscape.org/namespaces/inkscape"
   width="148"
   height="64"
   id="svg5215"
   version="1.1"
   inkscape:version="0.48.4 r9939"
   sodipodi:docname="Новый документ 7">
  <defs
     id="defs5217">
    <radialGradient
       cx="-790"
       cy="326.64789"
       r="50"
       fx="-790"
       fy="326.64789"
       id="radialGradient5797"
       xlink:href="#linearGradient3969-9-3"
       gradientUnits="userSpaceOnUse"
       gradientTransform="matrix(1,0,0,2.1142857,0,-363.97908)" />
    <linearGradient
       id="linearGradient3969-9-3">
      <stop
         id="stop3971-9-5"
         style="stop-color:#ffffff;stop-opacity:1"
         offset="0" />
      <stop
         id="stop3973-8-07"
         style="stop-color:#ffffff;stop-opacity:0"
         offset="1" />
    </linearGradient>
    <radialGradient
       cx="-790"
       cy="326.64789"
       r="50"
       fx="-790"
       fy="326.64789"
       id="radialGradient5799"
       xlink:href="#linearGradient3969-98-9"
       gradientUnits="userSpaceOnUse"
       gradientTransform="matrix(1,0,0,2.1142857,0,-363.97908)" />
    <linearGradient
       id="linearGradient3969-98-9">
      <stop
         id="stop3971-6-0"
         style="stop-color:#ffffff;stop-opacity:1"
         offset="0" />
      <stop
         id="stop3973-6-3"
         style="stop-color:#ffffff;stop-opacity:0"
         offset="1" />
    </linearGradient>
  </defs>
  <sodipodi:namedview
     id="base"
     pagecolor="#ffffff"
     bordercolor="#666666"
     borderopacity="1.0"
     inkscape:pageopacity="0.0"
     inkscape:pageshadow="2"
     inkscape:zoom="5.5"
     inkscape:cx="85.98277"
     inkscape:cy="26.087806"
     inkscape:current-layer="layer1"
     showgrid="true"
     inkscape:document-units="px"
     inkscape:grid-bbox="true"
     inkscape:window-width="1507"
     inkscape:window-height="877"
     inkscape:window-x="-8"
     inkscape:window-y="-8"
     inkscape:window-maximized="1" />
  <metadata
     id="metadata5220">
    <rdf:RDF>
      <cc:Work
         rdf:about="">
        <dc:format>image/svg+xml</dc:format>
        <dc:type
           rdf:resource="http://purl.org/dc/dcmitype/StillImage" />
        <dc:title></dc:title>
      </cc:Work>
    </rdf:RDF>
  </metadata>
  <g
     id="layer1"
     inkscape:label="Layer 1"
     inkscape:groupmode="layer">
    <g
       id="g5757"
       transform="matrix(0.31633623,0,0,0.31044626,-162.20412,-368.0892)">
      <path
         inkscape:connector-curvature="0"
         style="fill:none;stroke:#000000;stroke-width:10;stroke-linecap:butt;stroke-linejoin:miter;stroke-miterlimit:4;stroke-opacity:1;stroke-dasharray:none"
         id="path3926-2"
         d="m 669.28034,1288.407 c 205.7143,2.8572 202.8571,0 202.8571,0" />
      <path
         inkscape:connector-curvature="0"
         style="fill:#2c5aa0;fill-opacity:1;fill-rule:nonzero;stroke:#000000;stroke-width:4.16901398;stroke-linejoin:bevel;stroke-miterlimit:4;stroke-opacity:1;stroke-dasharray:none;stroke-dashoffset:0"
         id="path2985-6-46"
         transform="matrix(0.47972974,0,0,0.47972974,981.67404,1120.0033)"
         d="m -551.42854,352.36218 a 211.42857,211.42857 0 1 1 -422.85715,0 211.42858,211.42858 0 1 1 422.85715,0 z" />
      <path
         inkscape:connector-curvature="0"
         style="fill:url(#radialGradient5797);fill-opacity:1;fill-rule:nonzero;stroke:none"
         id="path3967-8-6"
         transform="matrix(0.77142857,0,-0.27027027,0.44594595,1281.2779,1099.0889)"
         d="m -740,326.64789 a 50,105.71429 0 1 1 -100,0 50,105.71429 0 1 1 100,0 z" />
      <text
         sodipodi:linespacing="125%"
         style="font-size:144px;font-style:normal;font-variant:normal;font-weight:normal;font-stretch:normal;line-height:125%;letter-spacing:0px;word-spacing:0px;fill:#000000;fill-opacity:1;stroke:none;font-family:Arial;-inkscape-font-specification:Arial"
         xml:space="preserve"
         id="text3755-2-6"
         y="1340.5809"
         x="567.68542"><tspan
           style="fill:#ffffff"
           id="tspan3757-45-2"
           y="1340.5809"
           x="567.68542">A</tspan></text>
      <path
         inkscape:connector-curvature="0"
         style="fill:#89a02c;fill-opacity:1;fill-rule:nonzero;stroke:#000000;stroke-width:4.16901398;stroke-linejoin:bevel;stroke-miterlimit:4;stroke-opacity:1;stroke-dasharray:none;stroke-dashoffset:0"
         id="path2985-1-8-9"
         transform="matrix(0.47972974,0,0,0.47972974,1243.1026,1120.0033)"
         d="m -551.42854,352.36218 a 211.42857,211.42857 0 1 1 -422.85715,0 211.42858,211.42858 0 1 1 422.85715,0 z" />
      <path
         inkscape:connector-curvature="0"
         style="fill:url(#radialGradient5799);fill-opacity:1;fill-rule:nonzero;stroke:none"
         id="path3967-3-0"
         transform="matrix(0.77142857,0,-0.27027027,0.44594595,1535.5635,1099.0889)"
         d="m -740,326.64789 a 50,105.71429 0 1 1 -100,0 50,105.71429 0 1 1 100,0 z" />
      <text
         sodipodi:linespacing="125%"
         style="font-size:144px;font-style:normal;font-variant:normal;font-weight:normal;font-stretch:normal;line-height:125%;letter-spacing:0px;word-spacing:0px;fill:#000000;fill-opacity:1;stroke:none;font-family:Arial;-inkscape-font-specification:Arial"
         xml:space="preserve"
         id="text3755-7-1-4"
         y="1340.5809"
         x="824.40295"><tspan
           style="fill:#ffffff"
           id="tspan3757-4-2-9"
           y="1340.5809"
           x="824.40295">C</tspan></text>
    </g>
  </g>
</svg>
